[gd_scene format=3 uid="uid://spp0qh67rhyf"]

[node name="N1N2" type="DampedSpringJoint2D"]
disable_collision = false
length = 1.0
stiffness = 64.0
damping = 1.5

[node name="Line2d" type="Line2D" parent="."]
default_color = Color(0.745098, 0.533333, 0.541176, 1)
