Pole 62,Pole 22
Vindhya A6 (79A),Pole 63
Pole 66,Pole 22
Pole 82,Pole 82
Vindhya A2-A4 (79F),Pole 61
Vindhya A4 (79B&79C),Pole 19
Pole 63,Pole 79
Vindhya A4 (79B&79C),Vindhya A6 (79A)
Pole 66,Pole 26
Pole 63,Vindhya A6 (79A)
Pole 20,Pole 64
Pole 65,Pole 80
Pole 80,SCRC LAB
Pole 60,Pole 26
Pole 21,Vindhya A6 (79A)
Pole 25,Pole 22
Pole 65,Pole 77
Pole 20,Pole 61
Vindhya A2-A4 (79F),Pole 83
Pole 80,Pole 83
Pole 80,Pole 18
Pole 26,Pole 67
Pole 64,Pole 82
Pole 61,Pole 83
